[
      {
        "mode": "NULLABLE", 
        "name": "Account_Number", 
        "type": "STRING"
      }, 
      {
        "mode": "NULLABLE", 
        "name": "ChangedField", 
        "type": "STRING"
      }, 
      {
        "mode": "NULLABLE", 
        "name": "Date_From", 
        "type": "DATETIME"
      }, 
      {
        "mode": "NULLABLE", 
        "name": "Date_To", 
        "type": "DATETIME"
      }, 
      {
        "mode": "NULLABLE", 
        "name": "SalesPerson", 
        "type": "STRING"
      }, 
      {
        "mode": "NULLABLE", 
        "name": "BOS_Username", 
        "type": "STRING"
      }
    ]
